<?xml version="1.0" encoding="UTF-8" standalone="no"?>
<!-- Generator: Adobe Illustrator 25.3.1, SVG Export Plug-In . SVG Version: 6.00 Build 0)  -->

<svg
   version="1.1"
   id="Calque_1"
   x="0px"
   y="0px"
   viewBox="0 0 800 258"
   style="enable-background:new 0 0 800 258;"
   xml:space="preserve"
   sodipodi:docname="skillvalue.svg"
   inkscape:version="1.4 (e7c3feb100, 2024-10-09)"
   xmlns:inkscape="http://www.inkscape.org/namespaces/inkscape"
   xmlns:sodipodi="http://sodipodi.sourceforge.net/DTD/sodipodi-0.dtd"
   xmlns="http://www.w3.org/2000/svg"
   xmlns:svg="http://www.w3.org/2000/svg"><defs
   id="defs23" /><sodipodi:namedview
   id="namedview23"
   pagecolor="#ffffff"
   bordercolor="#000000"
   borderopacity="0.25"
   inkscape:showpageshadow="2"
   inkscape:pageopacity="0.0"
   inkscape:pagecheckerboard="0"
   inkscape:deskcolor="#d1d1d1"
   inkscape:zoom="1.30375"
   inkscape:cx="400"
   inkscape:cy="128.85906"
   inkscape:window-width="1600"
   inkscape:window-height="836"
   inkscape:window-x="0"
   inkscape:window-y="0"
   inkscape:window-maximized="1"
   inkscape:current-layer="Calque_1" />
<style
   type="text/css"
   id="style1">
	.st0{fill:#FFFFFF;}
</style>
<g
   id="Landmarks">
</g>
<g
   id="g23"
   style="stroke:#000000;stroke-opacity:1;stroke-width:2.4;stroke-dasharray:none">
	<rect
   x="252.7"
   y="50.1"
   class="st0"
   width="4.5"
   height="158"
   id="rect1"
   style="stroke:#000000;stroke-opacity:1;stroke-width:2.4;stroke-dasharray:none" />
	<g
   id="g10"
   style="stroke:#000000;stroke-opacity:1;stroke-width:2.4;stroke-dasharray:none">
		<path
   class="st0"
   d="M302,123.9h5v27.4h0.3c1.1-2.5,2.8-4.5,5.1-6c2.3-1.5,5.2-2.3,8.7-2.3c5.8,0,10.4,2.1,13.7,6.2    c3.3,4.1,4.9,9.9,4.9,17.5c0,7.5-1.6,13.4-4.9,17.5s-7.9,6.2-13.7,6.2c-3.5,0-6.3-0.8-8.6-2.3c-2.2-1.5-4-3.5-5.2-6H307v7.2h-5    V123.9z M319.9,185.8c4.5,0,8.1-1.4,10.6-4.3c2.5-2.9,3.8-6.8,3.8-11.7v-6.4c0-4.9-1.3-8.8-3.8-11.7s-6.1-4.3-10.6-4.3    c-1.8,0-3.4,0.3-5,0.8s-2.9,1.2-4.1,2.1c-1.2,0.9-2.1,1.9-2.8,3.2c-0.7,1.2-1,2.6-1,4.1v17.9c0,1.6,0.3,3,1,4.3s1.6,2.4,2.8,3.3    c1.2,0.9,2.5,1.6,4.1,2.1C316.5,185.6,318.1,185.8,319.9,185.8z"
   id="path1"
   style="stroke:#000000;stroke-opacity:1;stroke-width:2.4;stroke-dasharray:none" />
		<path
   class="st0"
   d="M379.2,144.1h5.1L363.4,202c-0.7,1.9-1.6,3.2-2.6,3.9s-2.6,1.1-4.9,1.1h-5.1v-4.3h7.6l4.3-11.9l-16.8-46.6    h5.3l13.9,39.9h0.4L379.2,144.1z"
   id="path2"
   style="stroke:#000000;stroke-opacity:1;stroke-width:2.4;stroke-dasharray:none" />
		<path
   class="st0"
   d="M415.9,189.3v-61.6H440c5.4,0,9.4,1.5,12.3,4.6c2.8,3.1,4.2,7.3,4.2,12.6c0,5.4-1.4,9.6-4.2,12.7    c-2.8,3.1-6.9,4.6-12.3,4.6h-18.9v27.1L415.9,189.3L415.9,189.3z M421.2,157.5H440c3.5,0,6.2-1,8.1-3s2.8-4.5,2.8-7.5v-4.2    c0-3-0.9-5.5-2.8-7.5s-4.5-3-8.1-3h-18.9v25.2H421.2z"
   id="path3"
   style="stroke:#000000;stroke-opacity:1;stroke-width:2.4;stroke-dasharray:none" />
		<path
   class="st0"
   d="M483.5,190.3c-3,0-5.7-0.5-8.2-1.6c-2.4-1.1-4.5-2.6-6.3-4.6c-1.7-2-3.1-4.5-4-7.5c-0.9-2.9-1.4-6.3-1.4-10    s0.5-7,1.4-9.9s2.2-5.4,4-7.4c1.7-2,3.8-3.6,6.2-4.7c2.4-1.1,5.1-1.6,8.1-1.6c2.9,0,5.5,0.5,7.9,1.6s4.4,2.6,6,4.6s2.9,4.3,3.8,7    s1.4,5.8,1.4,9.1v2.4H469v2.2c0,2.4,0.3,4.5,1,6.5s1.6,3.7,2.9,5.1c1.3,1.4,2.8,2.5,4.6,3.3c1.8,0.8,3.9,1.2,6.2,1.2    c6.6,0,11.2-3,13.7-9.1l3.7,2.5c-1.4,3.3-3.6,6-6.7,8C491.4,189.3,487.8,190.3,483.5,190.3z M483.4,147.3c-2.2,0-4.1,0.4-5.9,1.2    s-3.3,1.9-4.5,3.3c-1.3,1.4-2.2,3.1-2.9,5.1c-0.7,2-1,4.1-1,6.5v0.4h28v-0.7c0-2.4-0.3-4.5-1-6.5c-0.6-2-1.6-3.6-2.8-5    c-1.2-1.4-2.6-2.4-4.3-3.2C487.2,147.7,485.4,147.3,483.4,147.3z"
   id="path4"
   style="stroke:#000000;stroke-opacity:1;stroke-width:2.4;stroke-dasharray:none" />
		<path
   class="st0"
   d="M515.3,189.3v-45.2h5v7.2h0.3c1-2.4,2.6-4.3,4.7-5.9c2.1-1.6,5-2.3,8.7-2.3c4.8,0,8.6,1.5,11.3,4.5    s4,7.2,4,12.8v29h-5v-28.2c0-4.6-1-8-3-10.2s-4.8-3.4-8.6-3.4c-1.6,0-3.1,0.2-4.6,0.6c-1.5,0.4-2.8,1-3.9,1.9s-2.1,1.9-2.7,3.1    c-0.7,1.3-1,2.7-1,4.4v31.8h-5.2V189.3z"
   id="path5"
   style="stroke:#000000;stroke-opacity:1;stroke-width:2.4;stroke-dasharray:none" />
		<path
   class="st0"
   d="M572.7,189.3c-1.8,0-3.2-0.5-4.1-1.5c-0.9-1-1.4-2.4-1.4-4.1v-35.3h-7.9v-4.3h5.1c1.2,0,2.1-0.2,2.5-0.8    c0.4-0.5,0.7-1.4,0.7-2.7v-9.2h4.6V144h10.2v4.3h-10.2v36.5h9.5v4.3h-9V189.3z"
   id="path6"
   style="stroke:#000000;stroke-opacity:1;stroke-width:2.4;stroke-dasharray:none" />
		<path
   class="st0"
   d="M625.6,189.3c-1.9,0-3.4-0.5-4.2-1.5c-0.9-1-1.4-2.4-1.5-4.1v-1.6h-0.4c-1,2.5-2.6,4.5-4.9,6    c-2.3,1.5-5.2,2.2-8.7,2.2c-4.8,0-8.4-1.2-11-3.5s-3.9-5.6-3.9-9.9c0-4,1.4-7.2,4.3-9.6c2.9-2.4,7.5-3.5,14.1-3.5h10.4v-5.3    c0-7.5-3.9-11.2-11.6-11.2c-3,0-5.5,0.6-7.5,1.9c-2,1.3-3.6,3.1-4.9,5.4l-3.2-2.6c1.2-2.6,3.1-4.8,5.7-6.5c2.6-1.7,5.9-2.5,10-2.5    c5.3,0,9.4,1.3,12.2,4s4.2,6.4,4.2,11.1v26.8h6.1v4.3h-5.2V189.3z M606.5,186c1.8,0,3.5-0.2,5.1-0.7s3-1.1,4.2-2s2.1-1.9,2.8-3.1    c0.7-1.2,1-2.6,1-4.1v-8.4H609c-4.5,0-7.8,0.7-9.8,2.2c-2,1.4-3,3.4-3,6v2.1c0,2.7,0.9,4.7,2.8,6C600.8,185.3,603.3,186,606.5,186    z"
   id="path7"
   style="stroke:#000000;stroke-opacity:1;stroke-width:2.4;stroke-dasharray:none" />
		<path
   class="st0"
   d="M646.6,189.3c-1.8,0-3.2-0.5-4.1-1.5c-0.9-1-1.4-2.3-1.4-4v-59.9h5v61h7v4.3h-6.5V189.3z"
   id="path8"
   style="stroke:#000000;stroke-opacity:1;stroke-width:2.4;stroke-dasharray:none" />
		<path
   class="st0"
   d="M680.4,190.3c-3,0-5.7-0.5-8.1-1.6c-2.4-1.1-4.5-2.6-6.2-4.6s-3-4.5-4-7.5c-0.9-2.9-1.4-6.3-1.4-10    s0.5-7,1.4-9.9s2.3-5.4,4-7.4s3.8-3.6,6.2-4.7c2.4-1.1,5.1-1.6,8.1-1.6s5.7,0.5,8.1,1.6c2.4,1.1,4.5,2.6,6.2,4.7    c1.7,2,3,4.5,4,7.4c0.9,2.9,1.4,6.2,1.4,9.9s-0.5,7-1.4,10c-0.9,2.9-2.3,5.4-4,7.5c-1.7,2-3.8,3.6-6.2,4.6    C686.1,189.8,683.4,190.3,680.4,190.3z M680.4,185.8c4.4,0,7.9-1.4,10.5-4.1c2.6-2.8,3.8-6.8,3.8-12.2v-5.6    c0-5.3-1.3-9.3-3.8-12.1c-2.6-2.8-6-4.2-10.5-4.2c-4.4,0-7.9,1.4-10.5,4.1c-2.6,2.8-3.8,6.8-3.8,12.2v5.6c0,5.3,1.3,9.3,3.8,12.1    C672.5,184.4,676,185.8,680.4,185.8z"
   id="path9"
   style="stroke:#000000;stroke-opacity:1;stroke-width:2.4;stroke-dasharray:none" />
		<path
   class="st0"
   d="M750,194.6c0,4.6-1.8,8-5.5,10.2s-9.1,3.3-16.2,3.3c-6.9,0-11.9-1-14.9-3c-3.1-2-4.6-4.8-4.6-8.3    c0-2.6,0.7-4.6,2-6.2c1.4-1.5,3.3-2.6,5.7-3.4v-0.7c-2.8-1.1-4.2-3.2-4.2-6.2c0-2.2,0.7-3.9,2.2-5.1c1.5-1.2,3.3-2.1,5.5-2.6v-0.4    c-2.6-1.2-4.7-2.9-6.2-5.3c-1.5-2.4-2.2-5.2-2.2-8.5c0-2.3,0.4-4.4,1.1-6.3c0.8-1.9,1.9-3.5,3.3-4.9c1.4-1.4,3.2-2.4,5.2-3.1    c2-0.7,4.3-1.1,6.8-1.1c3.5,0,6.5,0.7,9.1,2.2V143c0-1.3,0.3-2.4,1-3.2c0.6-0.8,1.7-1.3,3.2-1.3h7.8v4.3h-9.2v4.3    c1.5,1.4,2.7,3,3.5,4.9s1.2,4,1.2,6.3s-0.4,4.4-1.2,6.3c-0.8,1.9-1.9,3.5-3.4,4.9c-1.4,1.4-3.2,2.4-5.2,3.2    c-2,0.7-4.3,1.1-6.8,1.1c-0.8,0-1.6-0.1-2.4-0.2c-0.8-0.1-1.5-0.2-2.3-0.4c-1.9,0.5-3.5,1.3-4.8,2.2s-1.9,2.1-1.9,3.7    c0,2.7,2.4,4.1,7.2,4.1h10.5c5.5,0,9.4,1,11.9,3C748.8,188.2,750,191,750,194.6z M745.1,194.9c0-2.2-0.8-3.9-2.3-5.2    c-1.6-1.3-4.3-1.9-8.3-1.9h-14.7c-1.9,0.6-3.5,1.6-4.6,2.9c-1.1,1.3-1.7,2.9-1.7,4.9c0,2.4,1,4.3,2.9,5.9c1.9,1.6,4.9,2.3,8.8,2.3    h5.6c4.4,0,7.9-0.7,10.4-2.2C743.9,200.2,745.1,198,745.1,194.9z M728.1,169.7c3.5,0,6.2-0.9,8.2-2.6c2-1.7,3-4.2,3-7.4v-2.8    c0-3.1-1-5.5-3-7.3c-2-1.7-4.7-2.6-8.2-2.6s-6.3,0.9-8.2,2.6c-1.9,1.7-2.9,4.2-2.9,7.3v2.8c0,3.2,1,5.6,3,7.4    C721.9,168.9,724.6,169.7,728.1,169.7z"
   id="path10"
   style="stroke:#000000;stroke-opacity:1;stroke-width:2.4;stroke-dasharray:none" />
	</g>
	<g
   id="g20"
   style="stroke:#000000;stroke-opacity:1;stroke-width:2.4;stroke-dasharray:none">
		<path
   class="st0"
   d="M322.7,106.5c-4.8,0-8.9-0.8-12.2-2.5c-3.3-1.6-6.2-3.8-8.5-6.4l7.8-7.9c3.7,4.1,8.3,6.2,13.7,6.2    c2.9,0,5.1-0.6,6.5-1.8c1.4-1.2,2.1-2.8,2.1-4.7c0-1.5-0.4-2.8-1.3-3.8c-0.8-1-2.5-1.7-5.1-2.1l-5.4-0.7c-5.8-0.7-10-2.5-12.7-5.2    c-2.7-2.8-4-6.5-4-11c0-2.5,0.5-4.7,1.4-6.7s2.3-3.8,4-5.3s3.9-2.6,6.4-3.4c2.5-0.8,5.4-1.2,8.6-1.2c4.1,0,7.7,0.6,10.9,2    c3.1,1.3,5.8,3.2,8.1,5.7l-7.9,8c-1.3-1.5-2.9-2.7-4.7-3.7c-1.8-1-4.2-1.4-7-1.4c-2.7,0-4.6,0.5-5.9,1.4s-2,2.2-2,3.9    c0,1.9,0.5,3.2,1.5,4s2.7,1.4,5,1.8l5.4,0.9c5.6,0.9,9.8,2.6,12.5,5.2s4.1,6.3,4.1,11c0,2.6-0.5,5-1.4,7.2s-2.3,4.1-4.1,5.6    c-1.8,1.6-4,2.8-6.7,3.6C329.1,106.1,326.1,106.5,322.7,106.5z"
   id="path11"
   style="stroke:#000000;stroke-opacity:1;stroke-width:2.4;stroke-dasharray:none" />
		<path
   class="st0"
   d="M372.9,81.8l-7.1,8.6v15.2h-11.9V51h11.9v26h0.5l7.7-10.6L386.2,51h13.5l-18.4,22.5l20,32.2h-14L372.9,81.8z"
   id="path12"
   style="stroke:#000000;stroke-opacity:1;stroke-width:2.4;stroke-dasharray:none" />
		<path
   class="st0"
   d="M406.2,105.6v-9.5h7V60.4h-7V51h26v9.5h-7v35.7h7v9.5L406.2,105.6L406.2,105.6z"
   id="path13"
   style="stroke:#000000;stroke-opacity:1;stroke-width:2.4;stroke-dasharray:none" />
		<path
   class="st0"
   d="M442.1,105.6V51H454v44h20.8v10.6H442.1z"
   id="path14"
   style="stroke:#000000;stroke-opacity:1;stroke-width:2.4;stroke-dasharray:none" />
		<path
   class="st0"
   d="M483.6,105.6V51h11.9v44h20.8v10.6H483.6z"
   id="path15"
   style="stroke:#000000;stroke-opacity:1;stroke-width:2.4;stroke-dasharray:none" />
		<path
   class="st0"
   d="M532.1,105.6L514.5,51h12.1l8.1,26.2l4.3,17.1h0.2l4.1-17.1l8.1-26.2h11.7l-17.8,54.6    C545.3,105.6,532.1,105.6,532.1,105.6z"
   id="path16"
   style="stroke:#000000;stroke-opacity:1;stroke-width:2.4;stroke-dasharray:none" />
		<path
   class="st0"
   d="M599.7,105.6l-3.9-13h-18.2l-3.9,13h-12l18-54.6h14.7l17.8,54.6H599.7z M586.8,61.8h-0.4l-6,20.7h12.5    L586.8,61.8z"
   id="path17"
   style="stroke:#000000;stroke-opacity:1;stroke-width:2.4;stroke-dasharray:none" />
		<path
   class="st0"
   d="M619.6,105.6V51h11.9v44h20.8v10.6H619.6z"
   id="path18"
   style="stroke:#000000;stroke-opacity:1;stroke-width:2.4;stroke-dasharray:none" />
		<path
   class="st0"
   d="M669.8,51v33.5c0,3.9,0.8,6.7,2.3,8.6s4,2.9,7.6,2.9s6.1-1,7.6-2.9s2.3-4.8,2.3-8.6V51h11.6v32.2    c0,4-0.4,7.5-1.1,10.4c-0.8,2.9-2,5.4-3.7,7.3s-3.9,3.3-6.7,4.2c-2.7,0.9-6,1.4-9.9,1.4s-7.2-0.5-9.9-1.4s-4.9-2.3-6.7-4.2    c-1.7-1.9-3-4.3-3.7-7.3c-0.8-2.9-1.1-6.4-1.1-10.4V51H669.8z"
   id="path19"
   style="stroke:#000000;stroke-opacity:1;stroke-width:2.4;stroke-dasharray:none" />
		<path
   class="st0"
   d="M712.8,105.6V51H750v10.6h-25.3v11.1h21.7v10.6h-21.7V95H750v10.6H712.8z"
   id="path20"
   style="stroke:#000000;stroke-opacity:1;stroke-width:2.4;stroke-dasharray:none" />
	</g>
	<g
   id="g22"
   style="stroke:#000000;stroke-opacity:1;stroke-width:2.4;stroke-dasharray:none">
		<path
   class="st0"
   d="M112.2,170.8c7.2-9.8,16.8-15.6,19.5-17.1c2.4-1.3,5.8-2.8,9-4.1c3.8-1.6,8.2-3.4,9.3-4.6    c0.2-0.2,0.5-0.5,0.8-0.7c0.8-0.8,1.7-1.6,1.6-2.2c-0.1-0.5-0.7-2.1-5.5-4.8c-7.1-4.1-20.2-7.6-33.3-10.8c-5.3,11.6-6,20.6-6,20.7    l-3.3-0.2c0.2-4.6,1.2-14.4,3-22c-0.1,0-0.2,0-0.3-0.1c-16.9-4.2-33.2-6.2-33.3-6.2l0.2-3.3h0.2c1.8,0,17.5,0.1,35.4,2.4    c0.1-0.3,0.2-0.6,0.3-0.8c2.7-7.5,6.4-17.8,20.8-31c12.5-11.5,32.2-13.6,40.1-14h12.7c-14.2-13.5-33.4-21.9-54.5-21.9    c-43.6,0-79,35.4-79,79c0,33.4,20.8,62,50.1,73.5c0.1-1.8,0.2-3.5,0.6-5.8C102.1,188.4,106.5,178.7,112.2,170.8z"
   id="path21"
   style="stroke:#000000;stroke-opacity:1;stroke-width:2.4;stroke-dasharray:none" />
		<path
   class="st0"
   d="M187.8,76.3c-6.7,1-13.3,2.8-15.8,3.6l-0.7,0.2c-24.3,7.2-38,18.7-45.3,27.1c-3.1,3.7-6,7.6-8.4,11.7    c8.9,1.5,16.8,3.4,23.5,5.7c10.8,3.7,17.3,8.4,19.3,13.9c2,5.4-0.8,10.1-1.8,11.8c-2.5,4.2-16.2,17.8-31,27.3    c-14.7,9.4-16.1,11.3-19,15c-1.9,2.5-2.9,6.9-2.7,12c7.3,2.2,15.1,3.4,23.1,3.4c43.6,0,79-35.4,79-79    C208,108.8,200.3,90.3,187.8,76.3z"
   id="path22"
   style="stroke:#000000;stroke-opacity:1;stroke-width:2.4;stroke-dasharray:none" />
	</g>
</g>
</svg>
