<?xml version="1.0" encoding="UTF-8" standalone="no"?>
<svg
   height="2500"
   preserveAspectRatio="xMidYMid"
   width="2490"
   viewBox="-1.871 -0.4069999999999627 259.721 257.849"
   version="1.1"
   id="svg18"
   sodipodi:docname="vite.svg"
   inkscape:version="1.2.1 (9c6d41e410, 2022-07-14)"
   xmlns:inkscape="http://www.inkscape.org/namespaces/inkscape"
   xmlns:sodipodi="http://sodipodi.sourceforge.net/DTD/sodipodi-0.dtd"
   xmlns="http://www.w3.org/2000/svg"
   xmlns:svg="http://www.w3.org/2000/svg">
  <defs
     id="defs22" />
  <sodipodi:namedview
     id="namedview20"
     pagecolor="#ffffff"
     bordercolor="#666666"
     borderopacity="1.0"
     inkscape:showpageshadow="2"
     inkscape:pageopacity="0.0"
     inkscape:pagecheckerboard="0"
     inkscape:deskcolor="#d1d1d1"
     showgrid="false"
     inkscape:zoom="0.2156"
     inkscape:cx="932.282"
     inkscape:cy="1250"
     inkscape:window-width="1366"
     inkscape:window-height="748"
     inkscape:window-x="0"
     inkscape:window-y="20"
     inkscape:window-maximized="1"
     inkscape:current-layer="svg18" />
  <linearGradient
     id="a"
     x1="-.828%"
     x2="57.636%"
     y1="7.652%"
     y2="78.411%">
    <stop
       offset="0"
       stop-color="#41d1ff"
       id="stop2"
       style="stop-color:#41d1ff;stop-opacity:0;" />
    <stop
       offset="1"
       stop-color="#bd34fe"
       id="stop4"
       style="stop-color:#bd34fe;stop-opacity:0;" />
  </linearGradient>
  <linearGradient
     id="b"
     x1="43.376%"
     x2="50.316%"
     y1="2.242%"
     y2="89.03%">
    <stop
       offset="0"
       stop-color="#ffea83"
       id="stop7"
       style="stop-color:#ffea83;stop-opacity:0;" />
    <stop
       offset="0.083"
       stop-color="#ffdd35"
       id="stop9"
       style="stop-color:#ffdd35;stop-opacity:0;" />
    <stop
       offset="1"
       stop-color="#ffa800"
       id="stop11"
       style="stop-color:#ffa800;stop-opacity:0;" />
  </linearGradient>
  <path
     d="M255.153 37.938L134.897 252.976c-2.483 4.44-8.862 4.466-11.382.048L.875 37.958c-2.746-4.814 1.371-10.646 6.827-9.67l120.385 21.517a6.537 6.537 0 0 0 2.322-.004l117.867-21.483c5.438-.991 9.574 4.796 6.877 9.62z"
     fill="url(#a)"
     id="path14"
     style="stroke:#7c9bb9;stroke-opacity:1;fill:none;fill-opacity:1;stroke-width:10.43056225;stroke-dasharray:none" />
  <path
     d="M185.432.063L96.44 17.501a3.268 3.268 0 0 0-2.634 3.014l-5.474 92.456a3.268 3.268 0 0 0 3.997 3.378l24.777-5.718c2.318-.535 4.413 1.507 3.936 3.838l-7.361 36.047c-.495 2.426 1.782 4.5 4.151 3.78l15.304-4.649c2.372-.72 4.652 1.36 4.15 3.788l-11.698 56.621c-.732 3.542 3.979 5.473 5.943 2.437l1.313-2.028 72.516-144.72c1.215-2.423-.88-5.186-3.54-4.672l-25.505 4.922c-2.396.462-4.435-1.77-3.759-4.114l16.646-57.705c.677-2.35-1.37-4.583-3.769-4.113z"
     fill="url(#b)"
     id="path16"
     style="opacity:1;stroke:none;stroke-opacity:1;stroke-width:10.43056225;stroke-dasharray:none;fill:#7c9bb9;fill-opacity:1" />
</svg>
